%YAML 1.1
%TAG !u! tag:unity3d.com,2011:
--- !u!1 &1577220288055129735
GameObject:
  m_ObjectHideFlags: 0
  m_CorrespondingSourceObject: {fileID: 0}
  m_PrefabInstance: {fileID: 0}
  m_PrefabAsset: {fileID: 0}
  serializedVersion: 6
  m_Component:
  - component: {fileID: 2573860677462934676}
  - component: {fileID: 6837368140872646306}
  - component: {fileID: 999728140517540443}
  m_Layer: 0
  m_Name: swat-car
  m_TagString: Untagged
  m_Icon: {fileID: 0}
  m_NavMeshLayer: 0
  m_StaticEditorFlags: 0
  m_IsActive: 1
--- !u!4 &2573860677462934676
Transform:
  m_ObjectHideFlags: 0
  m_CorrespondingSourceObject: {fileID: 0}
  m_PrefabInstance: {fileID: 0}
  m_PrefabAsset: {fileID: 0}
  m_GameObject: {fileID: 1577220288055129735}
  m_LocalRotation: {x: -0.5, y: -0.49999997, z: 0.5, w: 0.50000006}
  m_LocalPosition: {x: -0, y: 0.66160685, z: -0.00000047683716}
  m_LocalScale: {x: 0.4482482, y: 0.4482482, z: 0.20341562}
  m_Children: []
  m_Father: {fileID: 0}
  m_RootOrder: 0
  m_LocalEulerAnglesHint: {x: 0, y: 0, z: 0}
--- !u!33 &6837368140872646306
MeshFilter:
  m_ObjectHideFlags: 0
  m_CorrespondingSourceObject: {fileID: 0}
  m_PrefabInstance: {fileID: 0}
  m_PrefabAsset: {fileID: 0}
  m_GameObject: {fileID: 1577220288055129735}
  m_Mesh: {fileID: 8487847295424651480, guid: 0513ed1f040a610479b1ee4f17f5f620, type: 3}
--- !u!23 &999728140517540443
MeshRenderer:
  m_ObjectHideFlags: 0
  m_CorrespondingSourceObject: {fileID: 0}
  m_PrefabInstance: {fileID: 0}
  m_PrefabAsset: {fileID: 0}
  m_GameObject: {fileID: 1577220288055129735}
  m_Enabled: 1
  m_CastShadows: 1
  m_ReceiveShadows: 1
  m_DynamicOccludee: 1
  m_MotionVectors: 1
  m_LightProbeUsage: 1
  m_ReflectionProbeUsage: 1
  m_RenderingLayerMask: 1
  m_RendererPriority: 0
  m_Materials:
  - {fileID: 2100000, guid: e5922daca75db2a4f959989d410ab12b, type: 2}
  - {fileID: 2100000, guid: d8ed92ce7dae81a4184e2bb3a7a216cb, type: 2}
  - {fileID: 2100000, guid: 3129dac8623c90848b67c733acbbd2ac, type: 2}
  - {fileID: 2100000, guid: 8768a4d36433f9241841c42dcbc68078, type: 2}
  - {fileID: 2100000, guid: e16f541879588b34581225708871c8dc, type: 2}
  - {fileID: 2100000, guid: cf27f643d93eaf143966d862e7498fce, type: 2}
  - {fileID: 2100000, guid: fe8119a66701445458760effcd16cfe5, type: 2}
  - {fileID: 2100000, guid: 70f4c3f4fcbc3cf4c8a4b946de5d0680, type: 2}
  m_StaticBatchInfo:
    firstSubMesh: 0
    subMeshCount: 0
  m_StaticBatchRoot: {fileID: 0}
  m_ProbeAnchor: {fileID: 0}
  m_LightProbeVolumeOverride: {fileID: 0}
  m_ScaleInLightmap: 1
  m_PreserveUVs: 0
  m_IgnoreNormalsForChartDetection: 0
  m_ImportantGI: 0
  m_StitchLightmapSeams: 1
  m_SelectedEditorRenderState: 3
  m_MinimumChartSize: 4
  m_AutoUVMaxDistance: 0.5
  m_AutoUVMaxAngle: 89
  m_LightmapParameters: {fileID: 0}
  m_SortingLayerID: 0
  m_SortingLayer: 0
  m_SortingOrder: 0
